{
    "orders": [
        {
            "customer": 
            {
                "name":"Max",
                "nachname":"Mustermann",
                "e-mail":"max.mustermann@gmail.com"
            },
            "treatment-id":"uuid5",
            "date": "2023-06-20 15:00"
            
        }

    ]
}